15 Basic Base R and Tidyverse Data Manipulation Cheat Sheet | R for Social Network Analysis
…
tb %>%
  dplyr::group_by(screen_name) %>%
  dplyr::summarise(retweet_total = sum(retweet_count)) %>%
  dplyr::filter(retweet_total >= 245) %>%
  dplyr::arrange(desc(retweet_total)) %>%
  dplyr::rename(Screen_Name = screen_name,
                N_Retweets = retweet_total)

# A tibble: 89 x 2
   Screen_Name     N_Retweets
   <chr>                <dbl>
 1 TheEisaAli          486055
 2 EmmaDaly            448164
 3 DCrising21          291649
 4 MikeyKayNYC         150626
 5 realsohelbahjat     145546
 6 San_Patricio_BN     145518
 7 m_al_asiri           81549
 8 amnesty              80147
 9 Protectthenhs        72937
10 YouTube              62145
# ... with 79 more rows
…
