16 Text Mining and Semantic Network Analysis | R for Social Network Analysis
…
Now that we have built code to arrive at the necessary information, let’s go ahead and calculate TF-IDF using bind_tf_idf() and passing this into an object for future use. Terms with a tf_idf score of 0 are extremely common words throughout the entire set of videos. In other words, words with higher scores are relatively unique to an account in comparison to the total distribution of words.

tf_idf_user <- words_df %>%
  group_by(screen_name, word) %>%
  summarise(word_freq_by_user = n()) %>%
  ungroup() %>%
  group_by(screen_name) %>%
  mutate(total_words_by_user = sum(word_freq_by_user)) %>%
  arrange(desc(word_freq_by_user)) %>%
  tidytext::bind_tf_idf(word, screen_name, word_freq_by_user) %>%
  mutate_if(.predicate = is.double, ~ round(.x, digits = 3))

tf_idf_user

# A tibble: 256,227 x 7
# Groups:   screen_name [10,155]
   screen_name     word  word_freq_by_user total_words_by_us~    tf   idf tf_idf
   <chr>           <chr>             <int>              <int> <dbl> <dbl>  <dbl>
 1 IngaKaybor      trump               102               1826 0.056 2.06   0.115
 2 GMiller06698349 trump               100               1830 0.055 2.06   0.113
 3 realmikes0017   trump                96               1548 0.062 2.06   0.128
 4 xenadog         trump                96               1600 0.06  2.06   0.124
 5 SomeGuyOnABoat  trump                92               1452 0.063 2.06   0.131
 6 GMiller06698349 qanon                71               1830 0.039 0.037  0.001
 7 IngaKaybor      qanon                70               1826 0.038 0.037  0.001
 8 xenadog         qanon                62               1600 0.039 0.037  0.001
 9 MccollumTylan   trump                61               1016 0.06  2.06   0.124
10 realmikes0017   qanon                60               1548 0.039 0.037  0.001
# ... with 256,217 more rows
…
